Modelos Multinivel - Combinando datos de distintos niveles
…
qog=read_stata("https://multinivel-facso.netlify.app/assignment/data/qog_bas_ts_jan23_stata14.dta")

Dimensiones de la base:

dim(qog) 

[1] 15366   254

Tenemos 254 variables (columnas) para 15366 filas (países/años)

Ya que los países (cname) y años (year) se repiten en distintos momentos en el tiempo, veamos cuantos hay en total en la base:

qog %>% group_by(cname) %>% summarise() # 204 países

# A tibble: 204 × 1
   cname              
   <chr>              
 1 Afghanistan        
 2 Albania            
 3 Algeria            
 4 Andorra            
 5 Angola             
 6 Antigua and Barbuda
 7 Argentina          
 8 Armenia            
 9 Australia          
10 Austria            
# ℹ 194 more rows

qog %>% group_by(year) %>% summarise() # 77 años 

# A tibble: 77 × 1
    year
   <dbl>
 1  1946
 2  1947
 3  1948
 4  1949
 5  1950
 6  1951
 7  1952
 8  1953
 9  1954
10  1955
# ℹ 67 more rows
…
Descripción de base 2009

dim(qog2009)

[1] 198   2

qog2009 %>% 
  group_by(cname) %>% 
  na.omit() %>% 
  summarise_all(mean)

# A tibble: 75 × 2
   cname                            wdi_gini
   <chr>                               <dbl>
 1 Argentina                            43.7
 2 Armenia                              28  
 3 Austria                              31.5
 4 Belarus                              27.7
 5 Belgium                              28.6
 6 Bolivia (Plurinational State of)     49.2
 7 Botswana                             60.5
 8 Brazil                               53.7
 9 Bulgaria                             33.8
10 Burkina Faso                         39.8
# ℹ 65 more rows
…
Ahora, el procedimiento que combina las bases de datos individuales y grupales/agregadas corresponde a un “merge”, que como sabemos requiere un vector (variable) que identifique a las unidades de nivel 2 en ambas bases.

Acá se pueden producir dos situaciones:

ambas bases identifican de la misma manera a las unidades de nivel 2, es decir, en ambas existe una columna que tiene el mismo nombre y donde cada código o nombre se corresponde de manera exacta entre ambas bases. Este es el caso más favorable y se puede proceder directamente a la combinación de las bases

no existe un identificador único en ambas bases para las unidades de nivel 2. Por ejemplo, si son países, puede que estos se identifiquen por un código diferente, o que sus nombres en algunos casos se escriban distinto (ej: con/sin acento, distintos idiomas,etc). Si este es el caso, la opción más básica y trabajosa es la “manual”, es decir, generar una variable en alguna de las bases de datos a combinar que posea valores idénticos a los de la otra base de datos.

Veamos qué sucede en nuestro ejemplo. En la base ISSP la variable de identificación de país es v5, que posee un código y un valor:

issp2009r %>% 
  group_by("Country"=to_label(v5)) %>% 
  summarise("Country code"=mean(v5))

# A tibble: 41 × 2
   Country      `Country code`
   <fct>                 <dbl>
 1 AR-Argentina             32
 2 AU-Australia             36
 3 AT-Austria               40
 4 BE-Belgium               56
 5 BG-Bulgaria             100
 6 CL-Chile                152
 7 CN-China                156
 8 TW-Taiwan               158
 9 HR-Croatia              191
10 CY-Cyprus               196
# ℹ 31 more rows

En cuanto a la variable país en la base qog:

qog2009 %>% 
  group_by("Country"=to_label(cname)) %>% 
  summarise("Country code"=mean(cname))

# A tibble: 198 × 2
   Country             `Country code`
   <chr>                        <dbl>
 1 Afghanistan                     NA
 2 Albania                         NA
 3 Algeria                         NA
 4 Andorra                         NA
 5 Angola                          NA
 6 Antigua and Barbuda             NA
 7 Argentina                       NA
 8 Armenia                         NA
 9 Australia                       NA
10 Austria                         NA
# ℹ 188 more rows
…
Se puede ver que Argentina y Australia ya tienen sus códigos en la variable V5 que son los mismos que en ISSP. Se podría entonces seguir recodificando todos los países hasta completar la variable y entonces se puede hacer el merge.

Alternativa 2: en este caso tenemos otra posibilidad que nos ahorra la recodificación al trabajar con países. En R existe la librería countrycode, diseñada específicamente para estos casos. Para utilizarla, se requiere tener claro los formatos de las variables de input y de output. En este caso, el input es la variable que viene en la base de datos (nombre de los países en qog2009),y queremos el output con los códigos en que vienen los países en ISSP (v5).

La base ISSP (ver codebook) sigue el estandar ISO-3166 para los códigos y labels de los países, que es uno de los formatos tradicionales para codificar países. Este entonces es el output que queremos generar en la base qog2009 para luego realizar el merge.

pacman::p_load(countrycode)
qog2009$v5=countrycode(qog2009$cname, 'country.name','iso3n') # iso3n es ISO-3,para detalles ver documentación librería ?countrycode
qog2009 %>% group_by(v5) %>%  select(v5,cname) %>% slice(1:10)

# A tibble: 198 × 2
# Groups:   v5 [195]
      v5 cname              
   <dbl> <chr>              
 1     4 Afghanistan        
 2     8 Albania            
 3    12 Algeria            
 4    20 Andorra            
 5    24 Angola             
 6    28 Antigua and Barbuda
 7    31 Azerbaijan         
 8    32 Argentina          
 9    36 Australia          
10    40 Austria            
# ℹ 188 more rows

(Se generan algunos warnings por países no transformados, tener en cuenta por si luego falta información).

Ahora que tenemos una variable identica para los países en ambas bases de datos, es posible realizar el merge de ambas bases:

data_tot <- merge(issp2009r,qog2009,by=c("v5"))

Para ver el resultado

  data_tot %>% group_by("Country"=cname) %>% summarise("Country code"=mean(v5),"Gini"=mean(wdi_gini)) 

# A tibble: 42 × 3
   Country   `Country code`  Gini
   <chr>              <dbl> <dbl>
 1 Argentina             32  43.7
 2 Australia             36  NA  
 3 Austria               40  31.5
 4 Belgium               56  28.6
 5 Bulgaria             100  33.8
 6 Chile                152  47  
 7 China                156  NA  
 8 Croatia              191  32.6
 9 Cyprus               196  32.1
10 Czechia              203  26.2
# ℹ 32 more rows
…
